0;4032.0;4233.4;4364.0
1;3986.0;4171.94;4350.0
2;3960.0;4141.88;4416.0
3;3954.0;4109.44;4364.0
4;3938.0;4105.58;4328.0
5;3894.0;4088.84;4350.0
6;3872.0;4073.88;4358.0
7;3872.0;4061.62;4318.0
8;3872.0;4033.72;4326.0
9;3856.0;3997.08;4378.0
10;3872.0;4007.62;4490.0
11;3842.0;3994.18;4340.0
12;3842.0;3989.18;4294.0
13;3842.0;3985.28;4310.0
14;3836.0;3986.64;4354.0
15;3836.0;3987.72;4362.0
16;3824.0;3974.88;4328.0
17;3814.0;3971.8;4372.0
18;3814.0;3975.36;4388.0
19;3810.0;3966.38;4354.0
20;3810.0;3952.44;4290.0
21;3808.0;3956.4;4332.0
22;3796.0;3943.3;4296.0
23;3796.0;3938.18;4296.0
24;3784.0;3955.54;4316.0
25;3784.0;3941.74;4314.0
26;3784.0;3948.68;4272.0
27;3784.0;3917.34;4300.0
28;3784.0;3931.44;4290.0
29;3784.0;3922.26;4234.0
30;3784.0;3912.96;4264.0
31;3784.0;3916.4;4272.0
32;3784.0;3929.26;4282.0
33;3784.0;3930.72;4234.0
34;3784.0;3920.44;4234.0
35;3784.0;3920.98;4234.0
36;3784.0;3913.64;4266.0
37;3784.0;3936.2;4244.0
38;3784.0;3898.52;4268.0
39;3784.0;3906.14;4234.0
40;3784.0;3913.48;4248.0
41;3784.0;3914.02;4234.0
42;3784.0;3907.68;4234.0
43;3784.0;3901.1;4286.0
44;3784.0;3898.68;4234.0
45;3784.0;3906.56;4234.0
46;3784.0;3922.94;4234.0
47;3774.0;3896.62;4234.0
48;3774.0;3911.72;4322.0
49;3774.0;3910.86;4452.0
50;3774.0;3915.76;4234.0
51;3774.0;3909.62;4236.0
52;3774.0;3918.62;4274.0
53;3774.0;3922.62;4286.0
54;3774.0;3919.96;4268.0
55;3774.0;3918.5;4250.0
56;3774.0;3912.04;4244.0
57;3774.0;3903.04;4236.0
58;3774.0;3908.58;4286.0
59;3774.0;3913.38;4236.0
60;3774.0;3908.9;4254.0
61;3774.0;3940.88;4236.0
62;3774.0;3914.74;4236.0
63;3774.0;3898.18;4276.0
64;3774.0;3904.64;4322.0
65;3774.0;3907.5;4352.0
66;3774.0;3898.98;4236.0
67;3774.0;3908.1;4294.0
68;3774.0;3918.2;4274.0
69;3774.0;3925.42;4236.0
70;3774.0;3908.78;4302.0
71;3774.0;3912.84;4236.0
72;3774.0;3909.86;4252.0
73;3774.0;3909.42;4256.0
74;3774.0;3914.44;4338.0
75;3774.0;3907.72;4244.0
76;3774.0;3907.3;4236.0
77;3774.0;3893.56;4236.0
78;3774.0;3909.34;4248.0
79;3774.0;3903.78;4230.0
80;3774.0;3888.74;4236.0
81;3774.0;3906.56;4236.0
82;3774.0;3902.8;4236.0
83;3774.0;3919.16;4230.0
84;3774.0;3891.84;4236.0
85;3774.0;3883.58;4214.0
86;3774.0;3880.16;4268.0
87;3774.0;3903.98;4316.0
88;3774.0;3907.96;4250.0
89;3774.0;3907.42;4236.0
90;3774.0;3910.86;4236.0
91;3774.0;3925.54;4308.0
92;3774.0;3908.02;4334.0
93;3774.0;3893.36;4236.0
94;3774.0;3922.36;4236.0
95;3774.0;3900.68;4322.0
96;3774.0;3915.58;4306.0
97;3774.0;3918.98;4278.0
98;3774.0;3905.5;4230.0
99;3774.0;3921.7;4270.0
